…
```r
noaa_data %>% 
  group_by(evtype) %>% 
  summarise(total = sum(fatalities)) %>% 
  arrange(desc(total))
```

```
## # A tibble: 977 x 2
##    evtype         total
##    <chr>          <dbl>
##  1 TORNADO         5633
##  2 EXCESSIVE HEAT  1903
##  3 FLASH FLOOD      978
##  4 HEAT             937
##  5 LIGHTNING        816
##  6 TSTM WIND        504
##  7 FLOOD            470
##  8 RIP CURRENT      368
##  9 HIGH WIND        248
## 10 AVALANCHE        224
## # ... with 967 more rows
```

```r
noaa_data %>% 
  group_by(evtype) %>% 
  summarise(total = sum(injuries)) %>% 
  arrange(desc(total))
```

```
## # A tibble: 977 x 2
##    evtype            total
##    <chr>             <dbl>
##  1 TORNADO           91346
##  2 TSTM WIND          6957
##  3 FLOOD              6789
##  4 EXCESSIVE HEAT     6525
##  5 LIGHTNING          5230
##  6 HEAT               2100
##  7 ICE STORM          1975
##  8 FLASH FLOOD        1777
##  9 THUNDERSTORM WIND  1488
## 10 HAIL               1361
## # ... with 967 more rows
```
…
